[duration=7 price=329
 begin=30-01-2017 end=06-02-2017, habour=[Zauberhaftes Mittelmeer]
, duration=7 price=299
 begin=04-02-2017 end=11-02-2017, habour=[Zauberhaftes Mittelmeer]
, duration=7 price=399
 begin=04-02-2017 end=11-02-2017, habour=[Tausendundeine Nacht]
]